…
         Bada = NULL,
         Windows.Phone = NULL,
         Quarter = str_replace(Quarter, "\\[\\d+\\]", ""),
         Year = as.integer(str_split_fixed(Quarter, " ", 2)[,1]),
         Quarter = str_split_fixed(Quarter, " ", 2)[,2],
         qtr = as.integer(str_replace(Quarter, "Q", "")),
         year = Year+0.25*(qtr-1)) %>%
  gather(os, ct, -Year, -Quarter, -qtr, -year) %>%
  mutate(ct = as.numeric(ct)) %>%
  group_by(year) %>%
  mutate(share = ct/sum(ct))
phones
```

    ## # A tibble: 228 x 7
    ## # Groups:   year [38]
    ##    Quarter  Year   qtr    year             os    ct share
    ##      <chr> <int> <int>   <dbl>          <chr> <dbl> <dbl>
    ##  1      Q2  2016     2 2016.25 Windows.Mobile     0     0
    ##  2      Q1  2016     1 2016.00 Windows.Mobile     0     0
    ##  3      Q4  2015     4 2015.75 Windows.Mobile     0     0
    ##  4      Q3  2015     3 2015.50 Windows.Mobile     0     0
    ##  5      Q2  2015     2 2015.25 Windows.Mobile     0     0
    ##  6      Q1  2015     1 2015.00 Windows.Mobile     0     0
    ##  7      Q4  2014     4 2014.75 Windows.Mobile     0     0
    ##  8      Q3  2014     3 2014.50 Windows.Mobile     0     0
    ##  9      Q2  2014     2 2014.25 Windows.Mobile     0     0
    ## 10      Q1  2014     1 2014.00 Windows.Mobile     0     0
    ## # ... with 218 more rows
…
